Computing with Sequences and Ranges
…
as_tibble(ex)

## Warning in as.data.frame(mcols(x), ...): Arguments in '...' ignored

## # A tibble: 277,773 x 7
##    seqnames  start    end width strand
##      <fctr>  <int>  <int> <int> <fctr>
## 1      chr1  11874  12227   354      +
## 2      chr1  12595  12721   127      +
## 3      chr1  12613  12721   109      +
## 4      chr1  12646  12697    52      +
## 5      chr1  13221  14409  1189      +
## 6      chr1  13403  14409  1007      +
## 7      chr1  69091  70008   918      +
## 8      chr1 321084 321115    32      +
## 9      chr1 321146 321207    62      +
## 10     chr1 322037 322228   192      +
## # ... with 277,763 more rows, and 2 more variables: seq <chr>, GC <dbl>
…
